[0, 1, 2, 3, 4, 5, 6, 7, 8, 9, 10, 11, 12, 13, 14, 15, 16, 17, 18, 19, 20, 21, 22, 23, 24, 25, 26, 27, 28, 29, 30, 31, 32, 33, 34, 35, 36, 37, 38, 39, 40, 41, 42, 43, 44, 45, 46, 47, 48, 49]

+--------------------+--------+--------+--------+--------+--------+--------+------+
|      Sequence      |  J(M)  |  J(O)  |  J(D)  |  F(M)  |  F(O)  |  F(D)  | T(M) |
+--------------------+--------+--------+--------+--------+--------+--------+------+
|        bear        |  0.838 |  0.988 |  0.103 |  0.795 |  1.000 |  0.069 |  nan |
|     blackswan      |  0.499 |  0.500 | -0.091 |  0.608 |  1.000 | -0.022 |  nan |
|     bmx-bumps      |  0.426 |  0.545 |  0.528 |  0.597 |  0.693 |  0.467 |  nan |
|     bmx-trees      |  0.602 |  0.782 |  0.241 |  0.789 |  0.923 |  0.142 |  nan |
|        boat        |  0.241 |  0.055 |  0.069 |  0.405 |  0.192 |  0.013 |  nan |
|     breakdance     |  0.754 |  0.939 | -0.013 |  0.789 |  1.000 |  0.012 |  nan |
|  breakdance-flare  |  0.725 |  0.942 |  0.070 |  0.790 |  0.986 |  0.029 |  nan |
|        bus         |  0.879 |  1.000 |  0.143 |  0.682 |  0.615 |  0.513 |  nan |
|       camel        |  0.827 |  1.000 |  0.139 |  0.793 |  1.000 |  0.146 |  nan |
|   car-roundabout   |  0.908 |  1.000 | -0.035 |  0.804 |  1.000 | -0.067 |  nan |
|     car-shadow     |  0.890 |  1.000 |  0.042 |  0.830 |  1.000 |  0.044 |  nan |
|      car-turn      |  0.898 |  1.000 | -0.006 |  0.821 |  1.000 |  0.099 |  nan |
|        cows        |  0.856 |  1.000 |  0.031 |  0.773 |  1.000 |  0.032 |  nan |
|     dance-jump     |  0.590 |  0.707 |  0.347 |  0.562 |  0.569 |  0.329 |  nan |
|    dance-twirl     |  0.800 |  1.000 | -0.087 |  0.831 |  1.000 | -0.024 |  nan |
|        dog         |  0.808 |  1.000 | -0.090 |  0.743 |  0.983 | -0.085 |  nan |
|    dog-agility     |  0.572 |  0.696 | -0.195 |  0.475 |  0.522 |  0.003 |  nan |
|   drift-chicane    |  0.674 |  0.780 | -0.193 |  0.755 |  0.860 | -0.065 |  nan |
|   drift-straight   |  0.896 |  1.000 |  0.040 |  0.855 |  1.000 |  0.217 |  nan |
|     drift-turn     |  0.748 |  0.855 |  0.416 |  0.733 |  0.952 |  0.331 |  nan |
|      elephant      |  0.795 |  1.000 | -0.076 |  0.681 |  0.987 | -0.032 |  nan |
|      flamingo      |  0.552 |  0.513 |  0.299 |  0.783 |  1.000 |  0.072 |  nan |
|        goat        |  0.134 |  0.000 |  0.099 |  0.408 |  0.250 | -0.049 |  nan |
|        hike        |  0.839 |  1.000 | -0.009 |  0.902 |  1.000 |  0.006 |  nan |
|       hockey       |  0.874 |  1.000 | -0.043 |  0.932 |  1.000 | -0.087 |  nan |
|   horsejump-high   |  0.805 |  1.000 |  0.071 |  0.873 |  1.000 | -0.001 |  nan |
|   horsejump-low    |  0.840 |  1.000 |  0.018 |  0.873 |  1.000 |  0.007 |  nan |
|     kite-surf      |  0.427 |  0.271 |  0.219 |  0.483 |  0.396 |  0.004 |  nan |
|     kite-walk      |  0.697 |  0.936 |  0.155 |  0.659 |  0.923 |  0.170 |  nan |
|       libby        |  0.461 |  0.553 |  0.470 |  0.665 |  0.766 |  0.297 |  nan |
|       lucia        |  0.856 |  1.000 |  0.007 |  0.853 |  1.000 | -0.017 |  nan |
|    mallard-fly     |  0.464 |  0.485 | -0.390 |  0.586 |  0.706 | -0.287 |  nan |
|   mallard-water    |  0.126 |  0.013 | -0.010 |  0.194 |  0.000 |  0.010 |  nan |
|  motocross-bumps   |  0.853 |  1.000 |  0.027 |  0.750 |  0.966 |  0.268 |  nan |
|   motocross-jump   |  0.651 |  0.737 |  0.037 |  0.576 |  0.658 |  0.093 |  nan |
|     motorbike      |  0.751 |  0.902 | -0.132 |  0.674 |  1.000 |  0.106 |  nan |
|    paragliding     |  0.926 |  1.000 |  0.004 |  0.933 |  1.000 |  0.066 |  nan |
| paragliding-launch |  0.623 |  0.667 |  0.308 |  0.327 |  0.205 |  0.406 |  nan |
|      parkour       |  0.563 |  0.551 | -0.014 |  0.701 |  0.847 |  0.118 |  nan |
|       rhino        |  0.886 |  1.000 |  0.011 |  0.823 |  1.000 | -0.020 |  nan |
|    rollerblade     |  0.877 |  1.000 |  0.020 |  0.944 |  1.000 |  0.031 |  nan |
|   scooter-black    |  0.784 |  1.000 | -0.262 |  0.669 |  1.000 | -0.099 |  nan |
|    scooter-gray    |  0.851 |  1.000 |  0.022 |  0.709 |  1.000 |  0.071 |  nan |
|      soapbox       |  0.891 |  1.000 |  0.015 |  0.865 |  1.000 |  0.008 |  nan |
|     soccerball     |  0.864 |  0.957 | -0.220 |  0.931 |  1.000 | -0.183 |  nan |
|      stroller      |  0.728 |  0.820 | -0.350 |  0.820 |  1.000 | -0.171 |  nan |
|        surf        |  0.913 |  0.962 |  0.070 |  0.884 |  0.943 |  0.095 |  nan |
|       swing        |  0.841 |  0.983 |  0.003 |  0.874 |  1.000 | -0.025 |  nan |
|       tennis       |  0.842 |  1.000 | -0.042 |  0.904 |  1.000 | -0.022 |  nan |
|       train        |  0.920 |  1.000 |  0.008 |  0.886 |  1.000 |  0.057 |  nan |
|      Average       |  0.721 |  0.823 |  0.035 |  0.732 |  0.859 |  0.061 |  nan |
+--------------------+--------+--------+--------+--------+--------+--------+------+

