{
    "binary_method": "fair",
    "data_base_dir": "/net/serpico-fs2/emeunier/",
    "data_file": "SegTrackv2_EvalSplit_val",
    "mean_score": 0.5973995236587841,
    "missing_rows": 0,
    "model_id": "3qorbvdu",
    "pred_base_dir": "/net/serpico-fs2/emeunier//Models/SegGrOptFlow/vir/3qorbvdu/",
    "scoring_method": "db_eval_iou",
    "total_rows": 1052
}